module gitlab.com/alxrem/tgfinger

go 1.12

require (
	github.com/go-telegram-bot-api/telegram-bot-api v4.6.4+incompatible
	github.com/sirupsen/logrus v1.4.2
	github.com/technoweenie/multipartstreamer v1.0.1 // indirect
	gitlab.com/alxrem/goapp v0.4.0
)
